<?xml version="1.0" encoding="UTF-8" standalone="no"?>
<!-- Created with Inkscape (http://www.inkscape.org/) -->

<svg
   width="48"
   height="48"
   viewBox="0 0 12.7 12.7"
   version="1.1"
   id="svg1"
   xmlns="http://www.w3.org/2000/svg"
   xmlns:svg="http://www.w3.org/2000/svg">
  <defs
     id="defs1" />
  <g
     id="layer1"
     transform="matrix(1.0567177,0,0,1.0567177,-0.36015771,-0.36015771)">
    <rect
       style="opacity:1;fill:none;fill-opacity:1;stroke:#ffffff;stroke-width:0.316;stroke-linecap:round;stroke-linejoin:round;stroke-dasharray:none;stroke-opacity:1"
       id="rect1"
       width="9.5708742"
       height="9.5708742"
       x="1.5645629"
       y="1.5645629" />
    <rect
       style="display:none;opacity:1;fill:none;fill-opacity:1;stroke:#ffffff;stroke-width:0.915798;stroke-linecap:round;stroke-linejoin:round;stroke-dasharray:none;stroke-opacity:1"
       id="rect38"
       width="9.5708742"
       height="9.5708742"
       x="1.5645629"
       y="1.5645629" />
  </g>
  <g
     id="layer2"
     style="display:inline">
    <path
       style="display:inline;fill:none;stroke:#ffffff;stroke-width:1.465;stroke-linecap:round;stroke-linejoin:round;stroke-dasharray:none;stroke-opacity:1"
       d="M 6.3410664,6.36546 4.4543968,4.5875971"
       id="path2" />
    <path
       style="display:none;fill:none;stroke:#ffffff;stroke-width:1.465;stroke-linecap:round;stroke-linejoin:round;stroke-dasharray:none;stroke-opacity:1"
       d="M 6.37713,6.3615649 11.260009,1.2965066"
       id="use31" />
    <path
       style="display:none;fill:none;stroke:#ffffff;stroke-width:1.465;stroke-linecap:round;stroke-linejoin:round;stroke-dasharray:none;stroke-opacity:1"
       d="M 6.3610066,6.3773634 13.39526,6.248543"
       id="use32" />
    <path
       style="display:none;fill:none;stroke:#ffffff;stroke-width:1.465;stroke-linecap:round;stroke-linejoin:round;stroke-dasharray:none;stroke-opacity:1"
       d="m 6.338434,6.3771308 5.065058,4.8828782"
       id="use33" />
    <path
       style="display:none;fill:none;stroke:#ffffff;stroke-width:1.465;stroke-linecap:round;stroke-linejoin:round;stroke-dasharray:none;stroke-opacity:1"
       d="M 6.322637,6.3610073 6.4514574,13.395261"
       id="use34" />
    <path
       style="display:none;fill:none;stroke:#ffffff;stroke-width:1.465;stroke-linecap:round;stroke-linejoin:round;stroke-dasharray:none;stroke-opacity:1"
       d="M 6.322869,6.3384356 1.4399903,11.403494"
       id="use35" />
    <path
       style="display:inline;fill:none;stroke:#ffffff;stroke-width:1.465;stroke-linecap:round;stroke-linejoin:round;stroke-dasharray:none;stroke-opacity:1"
       d="M 6.3389932,6.3226376 -0.69526049,6.451458"
       id="use36" />
    <path
       style="display:none;fill:none;stroke:#ffffff;stroke-width:1.465;stroke-linecap:round;stroke-linejoin:round;stroke-dasharray:none;stroke-opacity:1"
       d="M 6.3615647,6.3228685 1.2965064,1.4399898"
       id="use37" />
    <path
       style="display:none;fill:none;stroke:#ffffff;stroke-width:1.465;stroke-linecap:round;stroke-linejoin:round;stroke-dasharray:none;stroke-opacity:1"
       d="M 6.3773615,6.3389927 6.2485411,-0.69526102"
       id="use38" />
  </g>
  <g
     id="layer3"
     style="display:none">
    <text
       xml:space="preserve"
       style="font-size:9.13781px;line-height:1.25;font-family:'Besley*';-inkscape-font-specification:'Besley*, Normal';letter-spacing:0px;word-spacing:0px;display:inline;fill:#ffffff;fill-opacity:1;stroke-width:0.180351"
       x="3.8613932"
       y="9.795352"
       id="text38"><tspan
         id="tspan38"
         style="font-style:normal;font-variant:normal;font-weight:bold;font-stretch:normal;font-size:9.13781px;font-family:'Besley*';-inkscape-font-specification:'Besley*, Bold';font-variant-ligatures:normal;font-variant-caps:normal;font-variant-numeric:normal;font-variant-east-asian:normal;fill:#ffffff;fill-opacity:1;stroke-width:0.180351"
         x="3.8613932"
         y="9.795352">?</tspan></text>
  </g>
</svg>
